Lab10/pm.vcd
$date
	Sun Apr  7 17:39:52 2013
$end
$version
	Icarus Verilog
$end
$timescale
	1s
$end
$scope module test $end
$var reg 1 ! clk $end
$var reg 1 " done $end
$var integer 32 # i [31:0] $end
$var reg 1 $ reset $end
$scope module pm $end
$var wire 3 % ALUOp [2:0] $end
$var wire 1 & ALUSrc $end
$var wire 1 ' BEQ $end
$var wire 32 ( B_data [31:0] $end
$var wire 1 ) ForwardA $end
$var wire 1 * ForwardB $end
$var wire 1 + MemRead $end
$var wire 1 , MemToReg $end
$var wire 1 - MemWrite $end
$var wire 32 . PC [31:0] $end
$var wire 1 / PCSrc $end
$var wire 30 0 PC_plus4 [31:2] $end
$var wire 30 1 PC_target [31:2] $end
$var wire 1 2 RegDst $end
$var wire 1 3 RegWrite $end
$var wire 32 4 alu_out_data [31:0] $end
$var wire 1 5 clk $end
$var wire 32 6 f_rd1_data [31:0] $end
$var wire 32 7 f_rd2_data [31:0] $end
$var wire 1 8 flush $end
$var wire 6 9 funct [5:0] $end
$var wire 32 : imm [31:0] $end
$var wire 32 ; inst [31:0] $end
$var wire 32 < load_data [31:0] $end
$var wire 30 = n_PC [31:2] $end
$var wire 6 > n_funct [5:0] $end
$var wire 32 ? n_imm [31:0] $end
$var wire 6 @ n_opcode [5:0] $end
$var wire 5 A n_rd [4:0] $end
$var wire 32 B n_rd1_data [31:0] $end
$var wire 32 C n_rd2_data [31:0] $end
$var wire 5 D n_regnum [4:0] $end
$var wire 5 E n_rs [4:0] $end
$var wire 5 F n_rt [4:0] $end
$var wire 32 G n_wr_data [31:0] $end
$var wire 30 H next_PC [31:2] $end
$var wire 6 I opcode [5:0] $end
$var wire 5 J rd [4:0] $end
$var wire 32 K rd1_data [31:0] $end
$var wire 32 L rd2_data [31:0] $end
$var wire 1 M reset $end
$var wire 5 N rs [4:0] $end
$var wire 5 O rt [4:0] $end
$var wire 32 P wr_data [31:0] $end
$var wire 5 Q wr_regnum [4:0] $end
$var wire 1 R zero $end
$scope module PC_reg $end
$var wire 1 5 clk $end
$var wire 30 S d [29:0] $end
$var wire 1 T enable $end
$var wire 1 M reset $end
$var reg 30 U q [29:0] $end
$upscope $end
$scope module next_PC_adder $end
$var wire 30 V in1 [29:0] $end
$var wire 30 W in2 [29:0] $end
$var wire 30 X out [29:0] $end
$upscope $end
$scope module target_PC_adder $end
$var wire 30 Y in1 [29:0] $end
$var wire 30 Z in2 [29:0] $end
$var wire 30 [ out [29:0] $end
$upscope $end
$scope module branch_mux $end
$var wire 30 \ A [29:0] $end
$var wire 30 ] B [29:0] $end
$var wire 30 ^ out [29:0] $end
$var wire 1 / sel $end
$var wire 30 _ temp1 [29:0] $end
$var wire 30 ` temp2 [29:0] $end
$upscope $end
$scope module imem $end
$var wire 30 a addr [29:0] $end
$var wire 32 b data [31:0] $end
$var reg 32 c i [31:0] $end
$upscope $end
$scope module decode $end
$var wire 3 d ALUOp [2:0] $end
$var wire 1 & ALUSrc $end
$var wire 1 ' BEQ $end
$var wire 1 + MemRead $end
$var wire 1 , MemToReg $end
$var wire 1 - MemWrite $end
$var wire 1 2 RegDst $end
$var wire 1 3 RegWrite $end
$var wire 6 e funct [5:0] $end
$var wire 1 f nop $end
$var wire 1 g op0 $end
$var wire 6 h opcode [5:0] $end
$upscope $end
$scope module rf $end
$var wire 1 5 clock $end
$var wire 32 i internal_rdData [31:0] $end
$var wire 32 j rdData [31:0] $end
$var wire 5 k rdNum [4:0] $end
$var wire 1 3 rdWriteEnable $end
$var wire 1 M reset $end
$var wire 32 l rsData [31:0] $end
$var wire 5 m rsNum [4:0] $end
$var wire 32 n rtData [31:0] $end
$var wire 5 o rtNum [4:0] $end
$var integer 32 p i [31:0] $end
$upscope $end
$scope module imm_mux $end
$var wire 32 q A [31:0] $end
$var wire 32 r B [31:0] $end
$var wire 32 s out [31:0] $end
$var wire 1 & sel $end
$var wire 32 t temp1 [31:0] $end
$var wire 32 u temp2 [31:0] $end
$upscope $end
$scope module alu $end
$var wire 3 v control [2:0] $end
$var wire 32 w inA [31:0] $end
$var wire 32 x inB [31:0] $end
$var wire 32 y out [31:0] $end
$var wire 1 R zero $end
$upscope $end
$scope module data_memory $end
$var wire 32 z addr [31:0] $end
$var wire 1 5 clk $end
$var wire 32 { d_out [31:0] $end
$var wire 32 | data_in [31:0] $end
$var wire 32 } data_out [31:0] $end
$var wire 19 ~ index [18:0] $end
$var wire 32 !" internal_data_in [31:0] $end
$var wire 1 + mem_read $end
$var wire 1 - mem_write $end
$var wire 1 M reset $end
$var wire 1 "" valid_address $end
$var integer 32 #" i [31:0] $end
$upscope $end
$scope module wb_mux $end
$var wire 32 $" A [31:0] $end
$var wire 32 %" B [31:0] $end
$var wire 32 &" out [31:0] $end
$var wire 1 , sel $end
$var wire 32 '" temp1 [31:0] $end
$var wire 32 (" temp2 [31:0] $end
$upscope $end
$scope module rd_mux $end
$var wire 5 )" A [4:0] $end
$var wire 5 *" B [4:0] $end
$var wire 5 +" out [4:0] $end
$var wire 1 2 sel $end
$var wire 5 ," temp1 [4:0] $end
$var wire 5 -" temp2 [4:0] $end
$upscope $end
$scope module Pipeline_PC_Reg $end
$var wire 1 5 clk $end
$var wire 30 ." d [29:0] $end
$var wire 1 /" enable $end
$var wire 1 8 reset $end
$var reg 30 0" q [29:0] $end
$upscope $end
$scope module Pipeline_opcode $end
$var wire 1 5 clk $end
$var wire 6 1" d [5:0] $end
$var wire 1 2" enable $end
$var wire 1 8 reset $end
$var reg 6 3" q [5:0] $end
$upscope $end
$scope module Pipeline_funct $end
$var wire 1 5 clk $end
$var wire 6 4" d [5:0] $end
$var wire 1 5" enable $end
$var wire 1 8 reset $end
$var reg 6 6" q [5:0] $end
$upscope $end
$scope module Pipeline_rd1 $end
$var wire 1 5 clk $end
$var wire 32 7" d [31:0] $end
$var wire 1 8" enable $end
$var wire 1 8 reset $end
$var reg 32 9" q [31:0] $end
$upscope $end
$scope module Pipeline_rd2 $end
$var wire 1 5 clk $end
$var wire 32 :" d [31:0] $end
$var wire 1 ;" enable $end
$var wire 1 8 reset $end
$var reg 32 <" q [31:0] $end
$upscope $end
$scope module Pipeline_imm $end
$var wire 1 5 clk $end
$var wire 32 =" d [31:0] $end
$var wire 1 >" enable $end
$var wire 1 8 reset $end
$var reg 32 ?" q [31:0] $end
$upscope $end
$scope module Pipeline_rt $end
$var wire 1 5 clk $end
$var wire 5 @" d [4:0] $end
$var wire 1 A" enable $end
$var wire 1 8 reset $end
$var reg 5 B" q [4:0] $end
$upscope $end
$scope module Pipeline_rd $end
$var wire 1 5 clk $end
$var wire 5 C" d [4:0] $end
$var wire 1 D" enable $end
$var wire 1 8 reset $end
$var reg 5 E" q [4:0] $end
$upscope $end
$scope module Pipeline_rs $end
$var wire 1 5 clk $end
$var wire 5 F" d [4:0] $end
$var wire 1 G" enable $end
$var wire 1 8 reset $end
$var reg 5 H" q [4:0] $end
$upscope $end
$scope module Pipeline_Forwarding $end
$var wire 1 5 clk $end
$var wire 32 I" d [31:0] $end
$var wire 1 J" enable $end
$var wire 1 8 reset $end
$var reg 32 K" q [31:0] $end
$upscope $end
$scope module Pipeline_Forwarding_regnum $end
$var wire 1 5 clk $end
$var wire 5 L" d [4:0] $end
$var wire 1 M" enable $end
$var wire 1 8 reset $end
$var reg 5 N" q [4:0] $end
$upscope $end
$scope module rd1 $end
$var wire 32 O" A [31:0] $end
$var wire 32 P" B [31:0] $end
$var wire 32 Q" out [31:0] $end
$var wire 1 ) sel $end
$var wire 32 R" temp1 [31:0] $end
$var wire 32 S" temp2 [31:0] $end
$upscope $end
$scope module rd2 $end
$var wire 32 T" A [31:0] $end
$var wire 32 U" B [31:0] $end
$var wire 32 V" out [31:0] $end
$var wire 1 * sel $end
$var wire 32 W" temp1 [31:0] $end
$var wire 32 X" temp2 [31:0] $end
$upscope $end
$upscope $end
$upscope $end
$enddefinitions $end
#0
$dumpvars
bx X"
bx W"
bx V"
bx U"
bx T"
bx S"
bx R"
bx Q"
bx P"
bx O"
bx N"
1M"
bx L"
bx K"
1J"
bx I"
bx H"
1G"
bx F"
bx E"
1D"
bx C"
bx B"
1A"
bx @"
bx ?"
1>"
bx ="
bx <"
1;"
bx :"
bx 9"
18"
bx 7"
bx 6"
15"
bx 4"
bx 3"
12"
bx 1"
bx 0"
1/"
bx ."
bx -"
bx ,"
bx +"
bx *"
bx )"
bx ("
bx '"
bx &"
bx %"
bx $"
b1000000000000000000 #"
x""
bx !"
bx ~
bx }
bx |
bx {
bx z
bx y
bx x
bx w
bx v
bx u
bx t
bx s
bx r
bx q
b100000 p
bx o
bx n
bx m
bx l
bx k
bx j
bx i
bx h
xg
xf
bx e
bx d
b100000000 c
bx b
bx a
bx `
bx _
bx ^
bx ]
bx \
bx [
bx Z
bx Y
bx X
b1 W
bx V
bx U
1T
bx S
xR
bx Q
bx P
bx O
bx N
1M
bx L
bx K
bx J
bx I
bx H
bx G
bx F
bx E
bx D
bx C
bx B
bx A
bx @
bx ?
bx >
bx =
bx <
bx ;
bx :
bx 9
18
bx 7
bx 6
05
bx 4
x3
x2
bx 1
bx 0
x/
bx00 .
x-
x,
x+
x*
x)
bx (
x'
x&
bx %
1$
bx #
0"
0!
$end
#4
b0 (
b0 s
b0 x
b0 t
b0 Q
b0 k
b0 +"
b0 L"
b10010000 6
b10010000 w
b10010000 Q"
b0 7
b0 q
b0 |
b0 V"
b100000000000000000000 V
b100000000000000000000 a
b10010000 R"
b0 W"
b0 u
b0 Z
b0 ,"
0*
b0 -"
0)
b0 S"
b0 X"
b100000000000000000000 U
b10000000000000000000000 .
b0 0"
b0 =
b0 Y
b0 3"
1g
b0 @
b0 h
b100000 6"
b100000 >
b100000 e
b10010000 9"
b10010000 B
b10010000 O"
b0 <"
b0 C
b0 T"
b0 ?"
b0 ?
b0 r
b0 B"
b0 F
b0 )"
b0 E"
b0 A
b0 *"
b0 H"
b0 E
b0 K"
b0 G
b0 P"
b0 U"
b0 N"
b0 D
1!
15
#5
13
b0 `
12
b0 ("
0&
0/
b0 %
b0 d
b0 v
0R
0f
0-
0,
0+
0'
#6
b100000000000000000001 H
b100000000000000000001 S
b100000000000000000001 ^
b0 9
b0 4"
b100011 I
b100011 1"
b0 J
b0 C"
b10 O
b10 o
b10 @"
b10100 N
b10100 m
b10100 F"
b0 :
b0 ="
b100000000000000000001 _
b10001110100000100000000000000000 ;
b10001110100000100000000000000000 b
b0 !"
b100000000000000000001 0
b100000000000000000001 X
b100000000000000000001 \
b100000000000000000001 ."
b0 1
b0 [
b0 ]
#7
b11011110101011011011111011101111 {
b100100 ~
b10010000 P
b10010000 j
b10010000 &"
b10010000 I"
0""
b10010000 '"
b10000000000010000000000000000 L
b10000000000010000000000000000 n
b10000000000010000000000000000 :"
b10000000000010000000000000000 K
b10000000000010000000000000000 l
b10000000000010000000000000000 7"
b10010000 4
b10010000 y
b10010000 z
b10010000 $"
b0 <
b0 }
b0 %"
#8
b10010000 i
0!
05
#12
1!
15
#13
08
0$
0M
#16
0!
05
#20
b10000000000010000000000000000 (
b10000000000010000000000000000 s
b10000000000010000000000000000 x
b10000000000010000000000000000 t
b10000000000010000000000000000 6
b10000000000010000000000000000 w
b10000000000010000000000000000 Q"
b10000000000010000000000000000 7
b10000000000010000000000000000 q
b10000000000010000000000000000 |
b10000000000010000000000000000 V"
b100000000000000000001 V
b100000000000000000001 a
b10000000000010000000000000000 R"
b10000000000010000000000000000 W"
b100000000000000000001 U
b10000000000000000000100 .
b100000000000000000001 0"
b100000000000000000001 =
b100000000000000000001 Y
b100011 3"
0g
b100011 @
b100011 h
b0 6"
b0 >
b0 e
b10000000000010000000000000000 9"
b10000000000010000000000000000 B
b10000000000010000000000000000 O"
b10000000000010000000000000000 <"
b10000000000010000000000000000 C
b10000000000010000000000000000 T"
b10 B"
b10 F
b10 )"
b10100 H"
b10100 E
b10010000 K"
b10010000 G
b10010000 P"
b10010000 U"
1!
15
#21
b10 Q
b10 k
b10 +"
b10 L"
b0 (
b0 s
b0 x
b10 ,"
b0 P
b0 j
b0 &"
b0 I"
b0 t
02
b0 '"
1&
1R
1,
1+
#22
b100000000000000000010 H
b100000000000000000010 S
b100000000000000000010 ^
b100 9
b100 4"
b11 O
b11 o
b11 @"
b100 :
b100 ="
b100000000000000000010 _
0R
b0 i
b10001110100000110000000000000100 ;
b10001110100000110000000000000100 b
b10000000000010000000000000000 !"
b100000000000000000010 0
b100000000000000000010 X
b100000000000000000010 \
b100000000000000000010 ."
b100000000000000000001 1
b100000000000000000001 [
b100000000000000000001 ]
#23
b1 {
b100000000000000 ~
b11011110101011011011111011101111 P
b11011110101011011011111011101111 j
b11011110101011011011111011101111 &"
b11011110101011011011111011101111 I"
1""
b11011110101011011011111011101111 ("
b10000000000010000000000000000 4
b10000000000010000000000000000 y
b10000000000010000000000000000 z
b10000000000010000000000000000 $"
b11011110101011011011111011101111 <
b11011110101011011011111011101111 }
b11011110101011011011111011101111 %"
#24
b11011110101011011011111011101111 i
0!
05
#25
b1 P
b1 j
b1 &"
b1 I"
b1 ("
b1 <
b1 }
b1 %"
#26
b1 i
#28
b11 Q
b11 k
b11 +"
b11 L"
b100 (
b100 s
b100 x
b11 ,"
b100 u
b100 Z
b100000000000000000010 V
b100000000000000000010 a
b10 N"
b10 D
b1 K"
b1 G
b1 P"
b1 U"
b11 B"
b11 F
b11 )"
b100 ?"
b100 ?
b100 r
b100 6"
b100 >
b100 e
b100000000000000000010 0"
b100000000000000000010 =
b100000000000000000010 Y
b100000000000000000010 U
b10000000000000000001000 .
1!
15
#30
b11111111 {
b100000000000001 ~
b100000000000000000011 H
b100000000000000000011 S
b100000000000000000011 ^
b1000 9
b1000 4"
b100 O
b100 o
b100 @"
b1000 :
b1000 ="
b100000000000000000011 _
b10000000000010000000000000100 4
b10000000000010000000000000100 y
b10000000000010000000000000100 z
b10000000000010000000000000100 $"
b10001110100001000000000000001000 ;
b10001110100001000000000000001000 b
b100000000000000000011 0
b100000000000000000011 X
b100000000000000000011 \
b100000000000000000011 ."
b100000000000000000110 1
b100000000000000000110 [
b100000000000000000110 ]
#32
b11111111 P
b11111111 j
b11111111 &"
b11111111 I"
b11111111 ("
b11111111 <
b11111111 }
b11111111 %"
0!
05
#33
b11111111 i
#36
b1000 (
b1000 s
b1000 x
b100 Q
b100 k
b100 +"
b100 L"
b100000000000000000011 V
b100000000000000000011 a
b1000 u
b1000 Z
b100 ,"
b100000000000000000011 U
b10000000000000000001100 .
b100000000000000000011 0"
b100000000000000000011 =
b100000000000000000011 Y
b1000 6"
b1000 >
b1000 e
b1000 ?"
b1000 ?
b1000 r
b100 B"
b100 F
b100 )"
b11111111 K"
b11111111 G
b11111111 P"
b11111111 U"
b11 N"
b11 D
1!
15
#38
b10000000000 {
b100000000000010 ~
b100000000000000000100 H
b100000000000000000100 S
b100000000000000000100 ^
b1100 9
b1100 4"
b101 O
b101 o
b101 @"
b1100 :
b1100 ="
b100000000000000000100 _
b10000000000010000000000001000 4
b10000000000010000000000001000 y
b10000000000010000000000001000 z
b10000000000010000000000001000 $"
b10001110100001010000000000001100 ;
b10001110100001010000000000001100 b
b100000000000000000100 0
b100000000000000000100 X
b100000000000000000100 \
b100000000000000000100 ."
b100000000000000001011 1
b100000000000000001011 [
b100000000000000001011 ]
#40
b10000000000 P
b10000000000 j
b10000000000 &"
b10000000000 I"
b10000000000 ("
b10000000000 <
b10000000000 }
b10000000000 %"
0!
05
#41
b10000000000 i
#44
b101 Q
b101 k
b101 +"
b101 L"
b1100 (
b1100 s
b1100 x
b101 ,"
b1100 u
b1100 Z
b100000000000000000100 V
b100000000000000000100 a
b100 N"
b100 D
b10000000000 K"
b10000000000 G
b10000000000 P"
b10000000000 U"
b101 B"
b101 F
b101 )"
b1100 ?"
b1100 ?
b1100 r
b1100 6"
b1100 >
b1100 e
b100000000000000000100 0"
b100000000000000000100 =
b100000000000000000100 Y
b100000000000000000100 U
b10000000000000000010000 .
1!
15
#46
b1100100 {
b100000000000011 ~
b100000000000000000101 H
b100000000000000000101 S
b100000000000000000101 ^
b10000 9
b10000 4"
b110 O
b110 o
b110 @"
b10000 :
b10000 ="
b100000000000000000101 _
b10000000000010000000000001100 4
b10000000000010000000000001100 y
b10000000000010000000000001100 z
b10000000000010000000000001100 $"
b10001110100001100000000000010000 ;
b10001110100001100000000000010000 b
b100000000000000000101 0
b100000000000000000101 X
b100000000000000000101 \
b100000000000000000101 ."
b100000000000000010000 1
b100000000000000010000 [
b100000000000000010000 ]
#48
b1100100 P
b1100100 j
b1100100 &"
b1100100 I"
b1100100 ("
b1100100 <
b1100100 }
b1100100 %"
0!
05
#49
b1100100 i
#52
b10000 (
b10000 s
b10000 x
b110 Q
b110 k
b110 +"
b110 L"
b100000000000000000101 V
b100000000000000000101 a
b10000 u
b10000 Z
b110 ,"
b100000000000000000101 U
b10000000000000000010100 .
b100000000000000000101 0"
b100000000000000000101 =
b100000000000000000101 Y
b10000 6"
b10000 >
b10000 e
b10000 ?"
b10000 ?
b10000 r
b110 B"
b110 F
b110 )"
b1100100 K"
b1100100 G
b1100100 P"
b1100100 U"
b101 N"
b101 D
1!
15
#54
b11001000 {
b100000000000100 ~
b100000000000000000110 H
b100000000000000000110 S
b100000000000000000110 ^
b100000 9
b100000 4"
b0 I
b0 1"
b111 J
b111 C"
b10 N
b10 m
b10 F"
b11100000100000 :
b11100000100000 ="
b100000000000000000110 _
b10000000000010000000000010000 4
b10000000000010000000000010000 y
b10000000000010000000000010000 z
b10000000000010000000000010000 $"
b10001100011100000100000 ;
b10001100011100000100000 b
b100000000000000000110 0
b100000000000000000110 X
b100000000000000000110 \
b100000000000000000110 ."
b100000000000000010101 1
b100000000000000010101 [
b100000000000000010101 ]
#55
b1 K
b1 l
b1 7"
#56
b11001000 P
b11001000 j
b11001000 &"
b11001000 I"
b11001000 ("
b11001000 <
b11001000 }
b11001000 %"
0!
05
#57
b11001000 i
#60
b11001000 7
b11001000 q
b11001000 |
b11001000 V"
b0 W"
b11001000 X"
1*
b11100000100000 (
b11100000100000 s
b11100000100000 x
b1 6
b1 w
b1 Q"
b11100000100000 u
b11100000100000 Z
b1 R"
b100000000000000000110 V
b100000000000000000110 a
b110 N"
b110 D
b11001000 K"
b11001000 G
b11001000 P"
b11001000 U"
b10 H"
b10 E
b111 E"
b111 A
b111 *"
b11100000100000 ?"
b11100000100000 ?
b11100000100000 r
b1 9"
b1 B
b1 O"
b100000 6"
b100000 >
b100000 e
b0 3"
1g
b0 @
b0 h
b100000000000000000110 0"
b100000000000000000110 =
b100000000000000000110 Y
b100000000000000000110 U
b10000000000000000011000 .
1!
15
#61
b111 Q
b111 k
b111 +"
b111 L"
b11001000 (
b11001000 s
b11001000 x
b0 ,"
b111 -"
b10000000000010000000000010000 P
b10000000000010000000000010000 j
b10000000000010000000000010000 &"
b10000000000010000000000010000 I"
b11001000 t
b0 u
12
b10000000000010000000000010000 '"
b0 ("
0&
0,
0+
b11001000 L
b11001000 n
b11001000 :"
#62
b100000000000000000111 H
b100000000000000000111 S
b100000000000000000111 ^
b1000 J
b1000 C"
b11 O
b11 o
b11 @"
b100 N
b100 m
b100 F"
b100000000100000 :
b100000000100000 ="
b100000000000000000111 _
b10000000000010000000000010000 i
b11001000 !"
b100000110100000000100000 ;
b100000110100000000100000 b
b100000000000000000111 0
b100000000000000000111 X
b100000000000000000111 \
b100000000000000000111 ."
b100000011100000100110 1
b100000011100000100110 [
b100000011100000100110 ]
#63
b11011110101011011011111011101111 {
b110010 ~
b11001001 P
b11001001 j
b11001001 &"
b11001001 I"
0""
b11001001 '"
b11111111 L
b11111111 n
b11111111 :"
b10000000000 K
b10000000000 l
b10000000000 7"
b11001001 4
b11001001 y
b11001001 z
b11001001 $"
b0 <
b0 }
b0 %"
#64
b11001001 i
0!
05
#68
b11111111 (
b11111111 s
b11111111 x
b11111111 t
b11111111 W"
b10000000000 6
b10000000000 w
b10000000000 Q"
b1000 Q
b1000 k
b1000 +"
b1000 L"
b11111111 7
b11111111 q
b11111111 |
b11111111 V"
0*
b100000000000000000111 V
b100000000000000000111 a
b10000000000 R"
b100000000100000 Z
b1000 -"
b0 X"
b100000000000000000111 U
b10000000000000000011100 .
b100000000000000000111 0"
b100000000000000000111 =
b100000000000000000111 Y
b10000000000 9"
b10000000000 B
b10000000000 O"
b11111111 <"
b11111111 C
b11111111 T"
b100000000100000 ?"
b100000000100000 ?
b100000000100000 r
b11 B"
b11 F
b11 )"
b1000 E"
b1000 A
b1000 *"
b100 H"
b100 E
b11001001 K"
b11001001 G
b11001001 P"
b11001001 U"
b111 N"
b111 D
1!
15
#70
b100111111 ~
b10011111111 P
b10011111111 j
b10011111111 &"
b10011111111 I"
b100000000000000001000 H
b100000000000000001000 S
b100000000000000001000 ^
b10011111111 '"
b100010 9
b100010 4"
b1001 J
b1001 C"
b10 O
b10 o
b10 @"
b1000 N
b1000 m
b1000 F"
b100100000100010 :
b100100000100010 ="
b100000000000000001000 _
b10011111111 4
b10011111111 y
b10011111111 z
b10011111111 $"
b1000000100100100000100010 ;
b1000000100100100000100010 b
b11111111 !"
b100000000000000001000 0
b100000000000000001000 X
b100000000000000001000 \
b100000000000000001000 ."
b100000100000000100111 1
b100000100000000100111 [
b100000100000000100111 ]
#71
b10011111111 i
b1 L
b1 n
b1 :"
b10000000000010000000000000000 K
b10000000000010000000000000000 l
b10000000000010000000000000000 7"
#72
0!
05
#76
b1 (
b1 s
b1 x
b10011111111 S"
b1 t
1)
b1001 Q
b1001 k
b1001 +"
b1001 L"
b1 7
b1 q
b1 |
b1 V"
b10011111111 6
b10011111111 w
b10011111111 Q"
b1001 -"
b100100000100010 Z
b1 W"
b0 R"
b100000000000000001000 V
b100000000000000001000 a
b1000 N"
b1000 D
b10011111111 K"
b10011111111 G
b10011111111 P"
b10011111111 U"
b1000 H"
b1000 E
b1001 E"
b1001 A
b1001 *"
b10 B"
b10 F
b10 )"
b100100000100010 ?"
b100100000100010 ?
b100100000100010 r
b1 <"
b1 C
b1 T"
b10000000000010000000000000000 9"
b10000000000010000000000000000 B
b10000000000010000000000000000 O"
b100010 6"
b100010 >
b100010 e
b100000000000000001000 0"
b100000000000000001000 =
b100000000000000001000 Y
b100000000000000001000 U
b10000000000000000100000 .
1!
15
#77
b1 %
b1 d
b1 v
b10011111111 K
b10011111111 l
b10011111111 7"
#78
b100000000000000001001 H
b100000000000000001001 S
b100000000000000001001 ^
b100100 9
b100100 4"
b1010 J
b1010 C"
b11 O
b11 o
b11 @"
b100 N
b100 m
b100 F"
b101000000100100 :
b101000000100100 ="
b100000000000000001001 _
b1 !"
b100000110101000000100100 ;
b100000110101000000100100 b
b100000000000000001001 0
b100000000000000001001 X
b100000000000000001001 \
b100000000000000001001 ."
b100000100100000101010 1
b100000100100000101010 [
b100000100100000101010 ]
#79
b10011111110 P
b10011111110 j
b10011111110 &"
b10011111110 I"
b10011111110 '"
b11111111 L
b11111111 n
b11111111 :"
b10000000000 K
b10000000000 l
b10000000000 7"
b10011111110 4
b10011111110 y
b10011111110 z
b10011111110 $"
#80
b10011111110 i
0!
05
#84
b11111111 (
b11111111 s
b11111111 x
b11111111 t
b10000000000 R"
b11111111 7
b11111111 q
b11111111 |
b11111111 V"
b1010 Q
b1010 k
b1010 +"
b1010 L"
b10000000000 6
b10000000000 w
b10000000000 Q"
0)
b100000000000000001001 V
b100000000000000001001 a
b11111111 W"
b101000000100100 Z
b1010 -"
b0 S"
b100000000000000001001 U
b10000000000000000100100 .
b100000000000000001001 0"
b100000000000000001001 =
b100000000000000001001 Y
b100100 6"
b100100 >
b100100 e
b10000000000 9"
b10000000000 B
b10000000000 O"
b11111111 <"
b11111111 C
b11111111 T"
b101000000100100 ?"
b101000000100100 ?
b101000000100100 r
b11 B"
b11 F
b11 )"
b1010 E"
b1010 A
b1010 *"
b100 H"
b100 E
b10011111110 K"
b10011111110 G
b10011111110 P"
b10011111110 U"
b1001 N"
b1001 D
1!
15
#85
b10 %
b10 d
b10 v
#86
b100000000000000001010 H
b100000000000000001010 S
b100000000000000001010 ^
b100101 9
b100101 4"
b1011 J
b1011 C"
b1010 O
b1010 o
b1010 @"
b101100000100101 :
b101100000100101 ="
b100000000000000001010 _
b100010100101100000100101 ;
b100010100101100000100101 b
b11111111 !"
b100000000000000001010 0
b100000000000000001010 X
b100000000000000001010 \
b100000000000000001010 ."
b100000101000000101101 1
b100000101000000101101 [
b100000101000000101101 ]
#87
b0 ~
b0 P
b0 j
b0 &"
b0 I"
b0 '"
b10000000000010000000000000000 L
b10000000000010000000000000000 n
b10000000000010000000000000000 :"
b0 4
b0 y
b0 z
b0 $"
#88
b0 i
0!
05
#92
b0 (
b0 s
b0 x
b0 t
1*
b1011 Q
b1011 k
b1011 +"
b1011 L"
b0 7
b0 q
b0 |
b0 V"
b1011 -"
b101100000100101 Z
b0 W"
b100000000000000001010 V
b100000000000000001010 a
b1010 N"
b1010 D
b0 K"
b0 G
b0 P"
b0 U"
b1011 E"
b1011 A
b1011 *"
b1010 B"
b1010 F
b1010 )"
b101100000100101 ?"
b101100000100101 ?
b101100000100101 r
b10000000000010000000000000000 <"
b10000000000010000000000000000 C
b10000000000010000000000000000 T"
b100101 6"
b100101 >
b100101 e
b100000000000000001010 0"
b100000000000000001010 =
b100000000000000001010 Y
b100000000000000001010 U
b10000000000000000101000 .
1!
15
#93
b11 %
b11 d
b11 v
b0 L
b0 n
b0 :"
#94
b100000000000000001011 H
b100000000000000001011 S
b100000000000000001011 ^
b0 9
b0 4"
b0 J
b0 C"
b0 O
b0 o
b0 @"
b0 N
b0 m
b0 F"
b0 :
b0 ="
b100000000000000001011 _
b0 !"
b0 ;
b0 b
b100000000000000001011 0
b100000000000000001011 X
b100000000000000001011 \
b100000000000000001011 ."
b100000101100000101111 1
b100000101100000101111 [
b100000101100000101111 ]
#95
b100000000 ~
b10000000000 P
b10000000000 j
b10000000000 &"
b10000000000 I"
b10000000000 '"
b0 K
b0 l
b0 7"
b10000000000 4
b10000000000 y
b10000000000 z
b10000000000 $"
#96
b10000000000 i
0!
05
#100
b0 (
b0 s
b0 x
b0 t
b0 6
b0 w
b0 Q"
b0 Q
b0 k
b0 +"
b0 L"
b0 7
b0 q
b0 |
b0 V"
b100000000000000001011 V
b100000000000000001011 a
b0 R"
b0 Z
0*
b0 -"
b0 X"
b100000000000000001011 U
b10000000000000000101100 .
b100000000000000001011 0"
b100000000000000001011 =
b100000000000000001011 Y
b0 6"
b0 >
b0 e
b0 9"
b0 B
b0 O"
b0 <"
b0 C
b0 T"
b0 ?"
b0 ?
b0 r
b0 B"
b0 F
b0 )"
b0 E"
b0 A
b0 *"
b0 H"
b0 E
b10000000000 K"
b10000000000 G
b10000000000 P"
b10000000000 U"
b1011 N"
b1011 D
1!
15
#101
03
b0 %
b0 d
b0 v
1R
1f
#102
b0 ~
b0 P
b0 j
b0 &"
b0 I"
b100000000000000001100 H
b100000000000000001100 S
b100000000000000001100 ^
b0 '"
b100000000000000001100 _
b0 4
b0 y
b0 z
b0 $"
b100000000000000001100 0
b100000000000000001100 X
b100000000000000001100 \
b100000000000000001100 ."
b100000000000000001011 1
b100000000000000001011 [
b100000000000000001011 ]
#103
b0 i
#104
0!
05
#108
b100000000000000001100 V
b100000000000000001100 a
b0 N"
b0 D
b0 K"
b0 G
b0 P"
b0 U"
b100000000000000001100 0"
b100000000000000001100 =
b100000000000000001100 Y
b100000000000000001100 U
b10000000000000000110000 .
1!
15
#110
b100000000000000001101 H
b100000000000000001101 S
b100000000000000001101 ^
b100000000000000001101 _
b100000000000000001101 0
b100000000000000001101 X
b100000000000000001101 \
b100000000000000001101 ."
b100000000000000001100 1
b100000000000000001100 [
b100000000000000001100 ]
#112
0!
05
#116
b100000000000000001101 V
b100000000000000001101 a
b100000000000000001101 U
b10000000000000000110100 .
b100000000000000001101 0"
b100000000000000001101 =
b100000000000000001101 Y
1!
15
#118
b100000000000000001110 H
b100000000000000001110 S
b100000000000000001110 ^
b100000000000000001110 _
b100000000000000001110 0
b100000000000000001110 X
b100000000000000001110 \
b100000000000000001110 ."
b100000000000000001101 1
b100000000000000001101 [
b100000000000000001101 ]
#120
0!
05
#124
b100000000000000001110 V
b100000000000000001110 a
b100000000000000001110 0"
b100000000000000001110 =
b100000000000000001110 Y
b100000000000000001110 U
b10000000000000000111000 .
1!
15
#126
b100000000000000001111 H
b100000000000000001111 S
b100000000000000001111 ^
b100000000000000001111 _
b100000000000000001111 0
b100000000000000001111 X
b100000000000000001111 \
b100000000000000001111 ."
b100000000000000001110 1
b100000000000000001110 [
b100000000000000001110 ]
#128
0!
05
#132
b100000000000000001111 V
b100000000000000001111 a
b100000000000000001111 U
b10000000000000000111100 .
b100000000000000001111 0"
b100000000000000001111 =
b100000000000000001111 Y
1!
15
#134
b100000000000000010000 H
b100000000000000010000 S
b100000000000000010000 ^
b100000000000000010000 _
b100000000000000010000 0
b100000000000000010000 X
b100000000000000010000 \
b100000000000000010000 ."
b100000000000000001111 1
b100000000000000001111 [
b100000000000000001111 ]
#136
0!
05
#140
b100000000000000010000 V
b100000000000000010000 a
b100000000000000010000 0"
b100000000000000010000 =
b100000000000000010000 Y
b100000000000000010000 U
b10000000000000001000000 .
1!
15
#142
b100000000000000010001 H
b100000000000000010001 S
b100000000000000010001 ^
b100000000000000010001 _
b100000000000000010001 0
b100000000000000010001 X
b100000000000000010001 \
b100000000000000010001 ."
b100000000000000010000 1
b100000000000000010000 [
b100000000000000010000 ]
#144
0!
05
