Lab3/alu1.vcd
$date
	Mon Jan 28 21:06:15 2013
$end
$version
	Icarus Verilog
$end
$timescale
	1s
$end
$scope module testThis $end
$var wire 1 ! co $end
$var wire 1 " out $end
$var reg 1 # A $end
$var reg 1 $ B $end
$var reg 1 % Cin $end
$var reg 3 & control [2:0] $end
$scope module a1 $end
$var wire 1 ' A $end
$var wire 1 ( B $end
$var wire 1 ) arith $end
$var wire 1 * carryin $end
$var wire 1 ! carryout $end
$var wire 3 + control [2:0] $end
$var wire 1 , luResult $end
$var wire 1 - nB $end
$var wire 1 " out $end
$scope module f_a1 $end
$var wire 1 ' a $end
$var wire 1 - b $end
$var wire 1 * cin $end
$var wire 1 ! cout $end
$var wire 1 . partial_c1 $end
$var wire 1 / partial_c2 $end
$var wire 1 0 partial_s $end
$var wire 1 ) sum $end
$upscope $end
$scope module lu $end
$var wire 1 ' A $end
$var wire 1 1 And $end
$var wire 1 ( B $end
$var wire 1 2 Nor $end
$var wire 1 3 Or $end
$var wire 1 4 Xor $end
$var wire 2 5 control [1:0] $end
$var wire 1 , out $end
$scope module m4 $end
$var wire 1 1 A $end
$var wire 1 3 B $end
$var wire 1 2 C $end
$var wire 1 4 D $end
$var wire 2 6 bit [1:0] $end
$var wire 2 7 control [1:0] $end
$var wire 1 , out $end
$scope module m1 $end
$var wire 1 1 A $end
$var wire 1 3 B $end
$var wire 1 8 control $end
$var wire 1 9 not_control $end
$var wire 1 : out $end
$var wire 1 ; wA $end
$var wire 1 < wB $end
$upscope $end
$scope module m2 $end
$var wire 1 2 A $end
$var wire 1 4 B $end
$var wire 1 = control $end
$var wire 1 > not_control $end
$var wire 1 ? out $end
$var wire 1 @ wA $end
$var wire 1 A wB $end
$upscope $end
$scope module m3 $end
$var wire 1 B A $end
$var wire 1 C B $end
$var wire 1 D control $end
$var wire 1 E not_control $end
$var wire 1 , out $end
$var wire 1 F wA $end
$var wire 1 G wB $end
$upscope $end
$upscope $end
$upscope $end
$scope module m2 $end
$var wire 1 ) A $end
$var wire 1 , B $end
$var wire 1 H control $end
$var wire 1 I not_control $end
$var wire 1 " out $end
$var wire 1 J wA $end
$var wire 1 K wB $end
$upscope $end
$upscope $end
$upscope $end
$enddefinitions $end
#0
$dumpvars
0K
0J
1I
0H
0G
0F
1E
0D
1C
0B
0A
1@
1?
1>
0=
0<
0;
0:
19
08
b0 7
b10 6
b0 5
04
03
12
01
00
0/
0.
0-
0,
b0 +
0*
0)
0(
0'
b0 &
0%
0$
0#
0"
0!
$end
#1
1"
0C
1J
0?
b0 6
1)
0@
10
13
02
14
1#
1'
#2
1-
0#
0'
1$
1(
#3
1,
1F
0"
1B
0J
1:
b1 6
0)
1!
1;
00
1.
11
04
1#
1'
#4
0,
0F
0B
1C
0:
1?
b10 6
1"
0!
0;
1@
1J
0.
0-
01
03
12
1)
0#
0'
0$
0(
1%
1*
#5
0"
0C
0J
1!
0?
b0 6
0)
1/
0@
10
13
02
14
1#
1'
#6
1-
0#
0'
1$
1(
#7
1,
1F
1"
1B
1J
1:
b1 6
1)
0/
1;
00
1.
11
04
1#
1'
#8
0,
0F
0B
0C
0:
0?
b0 6
1"
09
0>
0!
0;
0@
1J
18
1=
10
0.
01
03
12
1)
b1 5
b1 7
0#
0'
0$
0(
0%
0*
b1 &
b1 +
#9
1,
1F
0"
1B
1C
0J
1:
1?
b11 6
0)
1!
1<
1A
00
1.
13
02
14
1#
1'
#10
0!
0.
0-
0#
0'
1$
1(
#11
1"
0C
1J
0?
b1 6
1)
0A
10
11
04
1#
1'
#12
0,
0F
0B
0:
b0 6
0"
0<
0J
1!
1-
01
03
12
0)
1/
0#
0'
0$
0(
1%
1*
#13
1,
1F
1"
1B
1C
1J
1:
1?
b11 6
1)
0/
1<
1A
00
1.
13
02
14
1#
1'
#14
0!
0.
0-
0#
0'
1$
1(
#15
0"
0C
0J
1!
0?
b1 6
0)
1/
0A
10
11
04
1#
1'
#16
1G
1C
1?
1,
0B
1@
0F
0:
b10 6
0"
19
1>
0E
0<
0J
0!
08
0=
1D
00
01
03
12
0)
0/
b10 5
b10 7
0#
0'
0$
0(
0%
0*
b10 &
b10 +
#17
0,
0G
1"
0C
1J
0?
b0 6
1)
0@
10
13
02
14
1#
1'
#18
1-
0#
0'
1$
1(
#19
0"
1B
0J
1:
b1 6
0)
1!
1;
00
1.
11
04
1#
1'
#20
1,
1G
0B
1C
0:
1?
b10 6
1"
0!
0;
1@
1J
0.
0-
01
03
12
1)
0#
0'
0$
0(
1%
1*
#21
0,
0G
0"
0C
0J
1!
0?
b0 6
0)
1/
0@
10
13
02
14
1#
1'
#22
1-
0#
0'
1$
1(
#23
1"
1B
1J
1:
b1 6
1)
0/
1;
00
1.
11
04
1#
1'
#24
0,
0G
0B
0C
0:
0?
b0 6
1"
09
0>
0!
0;
0@
1J
18
1=
10
0.
01
03
12
1)
b11 5
b11 7
0#
0'
0$
0(
0%
0*
b11 &
b11 +
#25
1,
1G
0"
1B
1C
0J
1:
1?
b11 6
0)
1!
1<
1A
00
1.
13
02
14
1#
1'
#26
0!
0.
0-
0#
0'
1$
1(
#27
0,
0G
1"
0C
1J
0?
b1 6
1)
0A
10
11
04
1#
1'
#28
0B
0:
b0 6
0"
0<
0J
1!
1-
01
03
12
0)
1/
0#
0'
0$
0(
1%
1*
#29
1,
1G
1"
1B
1C
1J
1:
1?
b11 6
1)
0/
1<
1A
00
1.
13
02
14
1#
1'
#30
0!
0.
0-
0#
0'
1$
1(
#31
0,
0G
0"
0C
0J
1!
0?
b1 6
0)
1/
0A
10
11
04
1#
1'
#32
0"
1C
0K
1?
0,
0B
1@
0F
0:
b10 6
19
1>
1E
0<
0!
08
0=
0D
0I
00
01
03
12
0)
0/
b0 5
b0 7
1H
0#
0'
0$
0(
0%
0*
b100 &
b100 +
#33
0C
0?
b0 6
1)
0@
10
13
02
14
1#
1'
#34
1-
0#
0'
1$
1(
#35
1"
1K
1,
1F
1B
1:
b1 6
0)
1!
1;
00
1.
11
04
1#
1'
#36
0"
0K
0,
0F
0B
1C
0:
1?
b10 6
0!
0;
1@
0.
0-
01
03
12
1)
0#
0'
0$
0(
1%
1*
#37
0C
1!
0?
b0 6
0)
1/
0@
10
13
02
14
1#
1'
#38
1-
0#
0'
1$
1(
#39
1"
1K
1,
1F
1B
1:
b1 6
1)
0/
1;
00
1.
11
04
1#
1'
#40
0"
0K
0,
0F
0B
0C
0:
0?
b0 6
09
0>
0!
0;
0@
18
1=
10
0.
01
03
12
1)
b1 5
b1 7
0#
0'
0$
0(
0%
0*
b101 &
b101 +
#41
1"
1K
1,
1F
1B
1C
1:
1?
b11 6
0)
1!
1<
1A
00
1.
13
02
14
1#
1'
#42
0!
0.
0-
0#
0'
1$
1(
#43
0C
0?
b1 6
1)
0A
10
11
04
1#
1'
#44
0"
0K
0,
0F
0B
0:
b0 6
0<
1!
1-
01
03
12
0)
1/
0#
0'
0$
0(
1%
1*
#45
1"
1K
1,
1F
1B
1C
1:
1?
b11 6
1)
0/
1<
1A
00
1.
13
02
14
1#
1'
#46
0!
0.
0-
0#
0'
1$
1(
#47
0C
1!
0?
b1 6
0)
1/
0A
10
11
04
1#
1'
#48
1G
1"
1C
1K
1?
1,
0B
1@
0F
0:
b10 6
19
1>
0E
0<
0!
08
0=
1D
00
01
03
12
0)
0/
b10 5
b10 7
0#
0'
0$
0(
0%
0*
b110 &
b110 +
#49
0"
0K
0,
0G
0C
0?
b0 6
1)
0@
10
13
02
14
1#
1'
#50
1-
0#
0'
1$
1(
#51
1B
1:
b1 6
0)
1!
1;
00
1.
11
04
1#
1'
#52
1"
1K
1,
1G
0B
1C
0:
1?
b10 6
0!
0;
1@
0.
0-
01
03
12
1)
0#
0'
0$
0(
1%
1*
#53
0"
0K
0,
0G
0C
1!
0?
b0 6
0)
1/
0@
10
13
02
14
1#
1'
#54
1-
0#
0'
1$
1(
#55
1B
1:
b1 6
1)
0/
1;
00
1.
11
04
1#
1'
#56
0"
0K
0,
0G
0B
0C
0:
0?
b0 6
09
0>
0!
0;
0@
18
1=
10
0.
01
03
12
1)
b11 5
b11 7
0#
0'
0$
0(
0%
0*
b111 &
b111 +
#57
1"
1K
1,
1G
1B
1C
1:
1?
b11 6
0)
1!
1<
1A
00
1.
13
02
14
1#
1'
#58
0!
0.
0-
0#
0'
1$
1(
#59
0"
0K
0,
0G
0C
0?
b1 6
1)
0A
10
11
04
1#
1'
#60
0B
0:
b0 6
0<
1!
1-
01
03
12
0)
1/
0#
0'
0$
0(
1%
1*
#61
1"
1K
1,
1G
1B
1C
1:
1?
b11 6
1)
0/
1<
1A
00
1.
13
02
14
1#
1'
#62
0!
0.
0-
0#
0'
1$
1(
#63
0"
0K
0,
0G
0C
1!
0?
b1 6
0)
1/
0A
10
11
04
1#
1'
#64
0B
0:
b0 6
0<
0!
1-
01
03
12
1)
0/
0#
0'
0$
0(
0%
0*
